<?xml version="1.0" encoding="utf-8"?>
<!-- Svg Vector Icons : http://www.onlinewebfonts.com/icon -->
<!DOCTYPE svg PUBLIC "-//W3C//DTD SVG 1.1//EN" "http://www.w3.org/Graphics/SVG/1.1/DTD/svg11.dtd">
<svg version="1.1" xmlns="http://www.w3.org/2000/svg" xmlns:xlink="http://www.w3.org/1999/xlink" x="0px" y="0px" viewBox="0 0 1000 1000" enable-background="new 0 0 1000 1000" xml:space="preserve">
<metadata> Svg Vector Icons : http://www.onlinewebfonts.com/icon </metadata>
<g><path d="M79.5,500c0-59.4,12.2-116.5,36.6-171.2l200.7,549.6c-71.5-34.6-128.9-85.9-172.3-153.7C101.1,657,79.5,582,79.5,500z M783.8,478.7c0,6.9-0.5,13.9-1.4,21.1c-0.9,7.1-2.7,16.1-5.5,27.1c-2.7,10.9-4.8,19-6.3,24.1c-1.5,5.1-4.6,15.9-9.6,32.3c-4.9,16.4-8.1,27-9.6,31.7l-41.6,140L558,303.1c16.8-1.1,32.8-2.6,48.1-4.4c6.9-0.7,11.7-4.1,14.2-10.1s2.1-11.7-1.4-17c-3.5-5.3-8.7-7.7-15.6-7.4l-112.1,5.5c-27.3-0.4-64.2-2.2-110.5-5.5c-4.4-0.4-8.1,0.5-11.2,2.7c-3.1,2.2-5.2,4.9-6.3,8.2c-1.1,3.3-1.4,6.7-0.8,10.1c0.5,3.5,2.2,6.5,4.9,9c2.7,2.6,6.3,4,10.7,4.4l43.7,4.4l65.6,179.4l-91.9,275.6l-153.1-455c16.8-1.1,32.8-2.6,48.1-4.4c6.9-0.7,11.7-4.1,14.2-10.1s2.1-11.7-1.4-17c-3.5-5.3-8.7-7.7-15.6-7.4l-112.1,5.5c-2.6,0-6.7,0.9-12.6,2.7c-5.8,1.8-10.6,2.7-14.2,2.7c38.3-58.3,88.3-104.5,150.1-138.6s128.8-51.1,201-51.1c53.6,0,104.7,9.7,153.4,29c48.7,19.3,92.1,46.5,130.4,81.5h-5.5c-20.1,0-36.8,7.4-50.3,22.1c-13.5,14.8-20.2,32.2-20.2,52.2c0,4.4,0.4,8.8,1.1,13.1c0.7,4.4,1.5,8.3,2.2,11.8c0.7,3.5,2.2,7.7,4.4,12.6s3.8,8.8,4.9,11.5c1.1,2.7,3.3,6.8,6.6,12.3s5.6,9.3,6.8,11.5c1.3,2.2,3.9,6.6,7.9,13.1c4,6.6,6.6,10.8,7.7,12.6c23,39,34.5,77.7,34.5,115.9V478.7z M507.1,536.6l129.6,353.8c0.4,2.2,1.3,4.2,2.7,6c-45.9,16-92.4,24.1-139.5,24.1c-40.8,0-80.4-5.8-118.7-17.5L507.1,536.6z M868.6,298.2c34.6,63.4,52,130.7,52,201.8c0,76.2-19,146.5-56.9,210.8s-88.8,115.1-152.6,152.3l128.5-370.8c21.5-61.6,32.3-111.9,32.3-150.9C871.9,326.1,870.8,311.7,868.6,298.2L868.6,298.2z M500,10c66.4,0,129.8,12.9,190.3,38.8c60.5,25.9,112.7,60.7,156.4,104.5s78.6,95.9,104.5,156.4c25.9,60.5,38.8,124,38.8,190.3c0,66.4-12.9,129.8-38.8,190.3c-25.9,60.5-60.7,112.7-104.5,156.4s-95.9,78.6-156.4,104.5C629.8,977.1,566.4,990,500,990c-66.4,0-129.8-12.9-190.3-38.8c-60.5-25.9-112.7-60.7-156.4-104.5S74.7,750.8,48.8,690.3C22.9,629.8,10,566.4,10,500c0-66.4,12.9-129.8,38.8-190.3c25.9-60.5,60.7-112.7,104.5-156.4s95.9-78.6,156.4-104.5C370.2,22.9,433.6,10,500,10L500,10z M500,967.6c63.1,0,123.5-12.4,181.3-37.2s107.6-58.1,149.3-99.8s75-91.5,99.8-149.3c24.8-57.8,37.2-118.2,37.2-181.3s-12.4-123.5-37.2-181.3c-24.8-57.8-58.1-107.6-99.8-149.3c-41.7-41.7-91.5-75-149.3-99.8C623.5,44.8,563.1,32.4,500,32.4c-63.1,0-123.5,12.4-181.3,37.2c-57.8,24.8-107.6,58.1-149.3,99.8c-41.7,41.7-75,91.5-99.8,149.3C44.8,376.5,32.4,436.9,32.4,500s12.4,123.5,37.2,181.3c24.8,57.8,58.1,107.6,99.8,149.3s91.5,75,149.3,99.8C376.5,955.2,436.9,967.6,500,967.6z"/></g>
</svg>